Trabalho prático com rcontroll - Dia 1
…
$species
[1] "spec_tbl_df" "tbl_df"      "tbl"         "data.frame" 

$las
[1] "list"

$class
[1] "character"

Trajetória do ecossistema

sim@ecosystem

# A tibble: 1,200 × 13
    iter  sum1 sum10 sum30    ba  ba10   agb   gpp   npp   rday rnight    rstem
   <dbl> <dbl> <dbl> <dbl> <dbl> <dbl> <dbl> <dbl> <dbl>  <dbl>  <dbl>    <dbl>
 1     0  9924     0     0 0.743     0  564. 0.962 0.522 0.0485 0.0959 0.000176
 2     1  9927     0     0 0.944     0  806. 0.972 0.522 0.0498 0.0997 0.00124 
 3     2  9926     0     0 1.13      0 1058. 1.04  0.559 0.0527 0.104  0.00173 
 4     3  9924     0     0 1.32      0 1324. 1.10  0.596 0.0567 0.110  0.00236 
 5     4  9925     0     0 1.49      0 1592. 1.15  0.611 0.0593 0.119  0.00293 
 6     5  9925     0     0 1.67      0 1878. 1.22  0.655 0.0618 0.122  0.00352 
 7     6  9927     0     0 1.85      0 2188. 1.31  0.709 0.0667 0.130  0.00424 
 8     7  9927     0     0 2.05      0 2534. 1.46  0.791 0.0767 0.140  0.00507 
 9     8  9922     0     0 2.25      0 2912. 1.61  0.866 0.0865 0.155  0.00625 
10     9  9926     0     0 2.46      0 3314. 1.73  0.920 0.0958 0.173  0.00748 
# ℹ 1,190 more rows
# ℹ 1 more variable: litterfall <dbl>

Trajetória das espécies

sim@species

# A tibble: 54,000 × 14
    iter species      sum1 sum10 sum30     ba  ba10   agb    gpp     npp    rday
   <dbl> <chr>       <dbl> <dbl> <dbl>  <dbl> <dbl> <dbl>  <dbl>   <dbl>   <dbl>
 1     0 Abarema_ju…   212     0     0 0.0182     0 12.5  0.0206 0.0111  1.06e-3
 2     0 Bocoa_prou…   206     0     0 0.0108     0  9.27 0.0186 0.00989 9.99e-4
 3     0 Brosimum_r…   224     0     0 0.0181     0 12.9  0.0213 0.0116  1.05e-3
 4     0 Carapa_pro…   225     0     0 0.0170     0 13.8  0.0241 0.0132  1.17e-3
 5     0 Caryocar_g…   213     0     0 0.0169     0 12.6  0.0210 0.0115  1.03e-3
 6     0 Cecropia_o…   238     0     0 0.0371     0 22.8  0.0249 0.0137  1.19e-3
 7     0 Chrysophyl…   209     0     0 0.0203     0 14.5  0.0220 0.0120  1.08e-3
 8     0 Conceveiba…   219     0     0 0.0155     0 11.1  0.0203 0.0109  1.07e-3
 9     0 Cordia_sag…   225     0     0 0.0171     0 13.0  0.0231 0.0124  1.21e-3
10     0 Couepia_br…   224     0     0 0.0148     0 12.2  0.0222 0.0121  1.09e-3
# ℹ 53,990 more rows
# ℹ 3 more variables: rnight <dbl>, rstem <dbl>, litterfall <dbl>

Estado final da floresta

sim@forest

# A tibble: 2,262 × 59
    iter   col   row from_Data sp_lab  site CrownDisplacement    Pmass  Nmass
   <dbl> <dbl> <dbl>     <dbl>  <dbl> <dbl>             <dbl>    <dbl>  <dbl>
 1  1200     0     0         0     27     0                 0 0.000437 0.0206
 2  1200    13     0         0     23    13                 0 0.000529 0.0193
 3  1200    14     0         0     39    14                 0 0.000580 0.0193
 4  1200    15     0         0     30    15                 0 0.000388 0.015 
 5  1200    36     0         0     36    36                 0 0.000593 0.0184
 6  1200    38     0         0      2    38                 0 0.000505 0.0255
 7  1200    39     0         0     24    39                 0 0.000498 0.0189
 8  1200    42     0         0     14    42                 0 0.000489 0.0155
 9  1200    43     0         0     33    43                 0 0.000308 0.013 
10  1200    44     0         0     19    44                 0 0.00115  0.0207
# ℹ 2,252 more rows
# ℹ 50 more variables: LMA <dbl>, wsg <dbl>, Rdark <dbl>, Vcmax <dbl>,
#   Jmax <dbl>, leaflifespan <dbl>, lambda_young <dbl>, lambda_mature <dbl>,
#   lambda_old <dbl>, dbhmature <dbl>, dbhmax <dbl>, hmax <dbl>, ah <dbl>,
#   Ct <dbl>, LAImax <dbl>, fraction_filled <dbl>, mult_height <dbl>,
#   mult_CR <dbl>, mult_CD <dbl>, mult_P <dbl>, mult_N <dbl>, mult_LMA <dbl>,
#   mult_dbhmax <dbl>, dev_wsg <dbl>, age <dbl>, dbh <dbl>, …
…
list.files("day1_out/test1/")

 [1] "test1_0_death_snapshots.txt"  "test1_0_death.txt"           
 [3] "test1_0_deathrate.txt"        "test1_0_final_pattern.txt"   
 [5] "test1_0_initial_pattern.txt"  "test1_0_sumstats_species.txt"
 [7] "test1_0_sumstats.txt"         "test1_input_climate.txt"     
 [9] "test1_input_daily.txt"        "test1_input_global.txt"      
[11] "test1_input_species.txt"      "test1_log.txt"               

Arquivos

read_tsv("day1_out/test1/test1_0_sumstats.txt")

# A tibble: 1,200 × 13
    iter  sum1 sum10 sum30    ba  ba10   agb   gpp   npp   rday rnight    rstem
   <dbl> <dbl> <dbl> <dbl> <dbl> <dbl> <dbl> <dbl> <dbl>  <dbl>  <dbl>    <dbl>
 1     0  9924     0     0 0.743     0  564. 0.962 0.522 0.0485 0.0959 0.000176
 2     1  9927     0     0 0.944     0  806. 0.972 0.522 0.0498 0.0997 0.00124 
 3     2  9926     0     0 1.13      0 1058. 1.04  0.559 0.0527 0.104  0.00173 
 4     3  9924     0     0 1.32      0 1324. 1.10  0.596 0.0567 0.110  0.00236 
 5     4  9925     0     0 1.49      0 1592. 1.15  0.611 0.0593 0.119  0.00293 
 6     5  9925     0     0 1.67      0 1878. 1.22  0.655 0.0618 0.122  0.00352 
 7     6  9927     0     0 1.85      0 2188. 1.31  0.709 0.0667 0.130  0.00424 
 8     7  9927     0     0 2.05      0 2534. 1.46  0.791 0.0767 0.140  0.00507 
 9     8  9922     0     0 2.25      0 2912. 1.61  0.866 0.0865 0.155  0.00625 
10     9  9926     0     0 2.46      0 3314. 1.73  0.920 0.0958 0.173  0.00748 
# ℹ 1,190 more rows
# ℹ 1 more variable: litterfall <dbl>
…
Preparar entrada

stack_parameters <- generate_parameters(
  cols = 100, rows = 100,
  iterperyear = 12, nbiter = 12 * 1
) %>%
  mutate(simulation = list(c("seed50000", "seed500"))) %>%
  unnest(simulation)
stack_parameters[62, 2] <- 500 # Cseedrain

Preparar entrada

stack_parameters

# A tibble: 126 × 4
   param        value description                         simulation
   <chr>        <dbl> <chr>                               <chr>     
 1 cols           100 /* nb of columns */                 seed50000 
 2 cols           100 /* nb of columns */                 seed500   
 3 rows           100 /* nb of rows  */                   seed50000 
 4 rows           100 /* nb of rows  */                   seed500   
 5 HEIGHT          70 /* vertical extent of simulation */ seed50000 
 6 HEIGHT          70 /* vertical extent of simulation */ seed500   
 7 length_dcell    25 /* linear size of a dcell */        seed50000 
 8 length_dcell    25 /* linear size of a dcell */        seed500   
 9 nbiter          12 /* total nb of timesteps */         seed50000 
10 nbiter          12 /* total nb of timesteps */         seed500   
# ℹ 116 more rows
…
