Trabalho prático com rcontroll - Dia 2
…
Rainfall (cm)

WindSpeed (m/s)

VaporPressureDeficit (hPa)

Iradiance (W/m2)

OBS: rcontroll inclui uma função para ajudar na preparação dos dados climáticos (sessão do dia 3).

Clima

read_tsv("data/day2/R1_input_daily.txt")

# A tibble: 70,080 × 6
   DayJulian time_numeric  Temp  Snet    VPD    WS
       <dbl>        <dbl> <dbl> <dbl>  <dbl> <dbl>
 1         1          6    23.2   1.1 0.0830  2.35
 2         1          6.5  23.3   1.1 0.0981  2.39
 3         1          7    23.4   1.1 0.118   2.47
 4         1          7.5  23.5  24.9 0.120   2.51
 5         1          8    23.6  49.3 0.140   2.71
 6         1          8.5  23.9 101.  0.209   3.24
 7         1          9    24.2 154.  0.285   3.68
 8         1          9.5  24.6 181.  0.318   3.64
 9         1         10    25.0 209.  0.310   3.25
10         1         10.5  25.4 295.  0.295   2.82
# ℹ 70,070 more rows

Clima

read_tsv("data/day2/R1_input_climate.txt")

# A tibble: 2,920 × 2
   NightTemperature Rainfall
              <dbl>    <dbl>
 1             26.0   20.0  
 2             26.6    2.72 
 3             26.2    6.26 
 4             26.7   13.7  
 5             25.4   13.2  
 6             24.3   16.6  
 7             25.9    1.67 
 8             26.2    7.40 
 9             23.2   49.8  
10             25.6    0.399
# ℹ 2,910 more rows
…
