rcontroll practical work - Day 3
…
public database / TALLO (Jucker et al. 2022)

Example (Jucker et al. 2022)

tallo <- read_tsv('data/day3/tallo_amazonia.tsv') %>% 
  filter(longitude <= -39 & longitude >= -79 & latitude >= -18 & latitude <= 10) %>% 
  filter(!is.na(species)) %>% 
  select(species, stem_diameter_cm, height_m)

Example (Jucker et al. 2022)

tallo

# A tibble: 8,363 × 3
   species                stem_diameter_cm height_m
   <chr>                             <dbl>    <dbl>
 1 Licania latistipula                 5        7.4
 2 Licania parviflora                  5        9.5
 3 Ouratea melinonii                   5.1      7.5
 4 Casearia sylvestris                 5.1      7  
 5 Rinorea flavescens                  5.1      4.9
 6 Cassipourea guianensis              5.1      7.4
 7 Rinorea flavescens                  5.1      5.4
 8 Sagotia racemosa                    5.1      7.2
 9 Sagotia racemosa                    5.1     10  
10 Mouriri crassifolia                 5.1      9.2
# ℹ 8,353 more rows
…
